OUTPUTS/cpu_verification.vcd
$date
	Sun Jun 14 16:26:12 2026
$end
$version
	Icarus Verilog
$end
$timescale
	1ps
$end
$scope module tb_simple_cpu $end
$var wire 8 ! out [7:0] $end
$var reg 1 " clk $end
$var reg 1 # rst_n $end
$scope module UUT $end
$var wire 1 " clk $end
$var wire 8 $ out [7:0] $end
$var wire 1 # rst_n $end
$var wire 1 % write_en $end
$var wire 8 & write_data [7:0] $end
$var wire 4 ' w_reg [3:0] $end
$var wire 1 ( rst $end
$var wire 4 ) r_reg2 [3:0] $end
$var wire 4 * r_reg1 [3:0] $end
$var wire 8 + r_d2 [7:0] $end
$var wire 8 , r_d1 [7:0] $end
$var wire 4 - r3 [3:0] $end
$var wire 4 . r2 [3:0] $end
$var wire 4 / r1 [3:0] $end
$var wire 4 0 opcode [3:0] $end
$var wire 1 1 mux_processor_stat_data_out $end
$var wire 1 2 mux_new_processor_stat $end
$var wire 1 3 mux_new_data_out $end
$var wire 1 4 is_mvr $end
$var wire 1 5 is_ldb $end
$var wire 16 6 inst_word [15:0] $end
$var wire 8 7 in_data [7:0] $end
$var wire 8 8 alu_out [7:0] $end
$var wire 3 9 alu_op_ctrl [2:0] $end
$var wire 1 : alu_c $end
$var reg 8 ; data_out [7:0] $end
$var reg 8 < pc [7:0] $end
$var reg 1 = processor_stat $end
$scope module ALU1 $end
$var wire 3 > op [2:0] $end
$var wire 8 ? in2 [7:0] $end
$var wire 8 @ in1 [7:0] $end
$var parameter 32 A BIT_WIDTH_REG $end
$var reg 1 : c $end
$var reg 8 B out [7:0] $end
$var reg 9 C temp [8:0] $end
$upscope $end
$scope module CU $end
$var wire 4 D opcode [3:0] $end
$var wire 4 E r1 [3:0] $end
$var wire 4 F r2 [3:0] $end
$var wire 4 G r3 [3:0] $end
$var reg 3 H alu_op [2:0] $end
$var reg 1 5 is_ldb $end
$var reg 1 4 is_mvr $end
$var reg 1 3 mux_new_data_out $end
$var reg 1 2 mux_new_processor_stat $end
$var reg 1 1 mux_processor_stat_data_out $end
$var reg 4 I r_reg1 [3:0] $end
$var reg 4 J r_reg2 [3:0] $end
$var reg 4 K w_reg [3:0] $end
$var reg 1 % write_en $end
$upscope $end
$scope module RF1 $end
$var wire 1 " clk $end
$var wire 8 L r_d1 [7:0] $end
$var wire 8 M r_d2 [7:0] $end
$var wire 4 N r_reg1 [3:0] $end
$var wire 4 O r_reg2 [3:0] $end
$var wire 1 ( rst $end
$var wire 8 P w_d [7:0] $end
$var wire 4 Q w_reg [3:0] $end
$var wire 1 % write $end
$var parameter 32 R BIT_WIDTH_REG $end
$var parameter 32 S LOG_REG_COUNT $end
$var parameter 32 T REG_COUNT $end
$var integer 32 U i [31:0] $end
$upscope $end
$scope module ROM $end
$var wire 8 V addr [7:0] $end
$var wire 16 W inst_out [15:0] $end
$upscope $end
$upscope $end
$upscope $end
$enddefinitions $end
$comment Show the parameter values. $end
$dumpall
b1110 T
b100 S
b1000 R
b1000 A
$end
#0
$dumpvars
b1000100010000 W
b0 V
b1110 U
b1 Q
b10000 P
b0 O
b0 N
b0 M
b0 L
b1 K
b0 J
b0 I
b0 H
b0 G
b1 F
b1 E
b1 D
bx C
b11111111 B
b0 @
b0 ?
b0 >
0=
b0 <
b0 ;
0:
b0 9
b11111111 8
b10000 7
b1000100010000 6
15
04
03
02
01
b1 0
b1 /
b1 .
b0 -
b0 ,
b0 +
b0 *
b0 )
1(
b1 '
b10000 &
1%
b0 $
0#
0"
b0 !
$end
#5000
b1110 U
1"
#10000
0"
#15000
b101 &
b101 P
15
1%
b10 '
b10 K
b10 Q
b101 7
b101 -
b101 G
b0 .
b0 F
b10 /
b10 E
b1001000000101 6
b1001000000101 W
b1 <
b1 V
1"
0(
1#
#20000
0"
#25000
b10101 8
b10101 B
b10101 C
b10101 &
b10101 P
12
b11 9
b11 >
b11 H
b101 +
b101 ?
b101 M
b10 )
b10 J
b10 O
b10000 ,
b10000 @
b10000 L
b1 *
b1 I
b1 N
05
1%
b11 '
b11 K
b11 Q
b10010 7
b10 -
b10 G
b1 .
b1 F
b11 /
b11 E
b1011 0
b1011 D
b1011001100010010 6
b1011001100010010 W
b10 <
b10 V
1"
#30000
0"
#35000
b11101010 &
b11101010 P
bx C
b11101010 8
b11101010 B
13
02
b0 9
b0 >
b0 H
0%
b0 '
b0 K
b0 Q
b0 +
b0 ?
b0 M
b0 )
b0 J
b0 O
b10101 ,
b10101 @
b10101 L
b11 *
b11 I
b11 N
b0 7
b0 -
b0 G
b0 .
b0 F
b10 0
b10 D
b10001100000000 6
b10001100000000 W
b11 <
b11 V
1"
#40000
0"
#45000
b11111111 &
b11111111 P
b11111111 8
b11111111 B
15
1%
b101 '
b101 K
b101 Q
03
b0 ,
b0 @
b0 L
b0 *
b0 I
b0 N
b11111111 7
b1111 -
b1111 G
b1111 .
b1111 F
b101 /
b101 E
b1 0
b1 D
b10101 !
b10101 $
b10101 ;
b1010111111111 6
b1010111111111 W
b100 <
b100 V
1"
#50000
0"
#55000
b0 &
b0 P
1:
b0 8
b0 B
12
b110 9
b110 >
b110 H
b11111111 ,
b11111111 @
b11111111 L
b101 *
b101 I
b101 N
05
1%
b110 '
b110 K
b110 Q
b1010000 7
b0 -
b0 G
b101 .
b101 F
b110 /
b110 E
b1110 0
b1110 D
b1110011001010000 6
b1110011001010000 W
b101 <
b101 V
1"
#60000
0"
#65000
b11111111 &
b11111111 P
0:
b11111111 8
b11111111 B
11
02
b0 9
b0 >
b0 H
0%
b0 '
b0 K
b0 Q
b0 ,
b0 @
b0 L
b0 *
b0 I
b0 N
b0 7
b0 .
b0 F
b0 /
b0 E
b11 0
b11 D
1=
b11000000000000 6
b11000000000000 W
b110 <
b110 V
1"
#70000
0"
#75000
01
bx 7
bx -
bx G
bx .
bx F
bx /
bx E
bx 0
bx D
bx 6
bx W
b111 <
b111 V
b1 !
b1 $
b1 ;
1"
#80000
0"
#85000
b1000 <
b1000 V
1"
#90000
0"
#95000
b1001 <
b1001 V
1"
#100000
0"
#105000
b1010 <
b1010 V
1"
